{
	"check_every_minutes": 5,
    "humblebundle": {
        "game_count": 5
    },
    "message": {
        "button": true,
        "custom_reply_markup": {},
        "disable_notification": true,
        "disable_web_page_preview": false,
        "parse_mode": "html",
        "text": "<a href='{link}'>{human_name}</a> is now available for free!\nExpires: {expires}"
    },
    "savefile": "./save.json",
    "telegram": {
		"active": true,
        "chat_id": -1000000000000,
        "token": "10000000:AbCdEfGhIjKlMnOpQrStUvWxYz9876543210"
    }
}
